Customer Name,Price,Offer Name,Quantity,Event
Jim Jones,2,Coke,1,The Weeknd Concert
Leni Martin,20,Beer,4,The Weeknd Concert
Leni Martin,20,Beer,4,The Weeknd Concert
Sunny Sood,4,Botted Water,4,The Weeknd Concert
Sam Muntz,10,Beer,2,The Weeknd Concert
Terry James,6,Hot Dog,1,The Weeknd Concert
Louis Dalbe,7,Burger,1,The Weeknd Concert
Max Mazzone,5,Beer,1,The Weeknd Concert
Max Mazzone,2,Coke,1,The Weeknd Concert
Max Mazzone,7,Burger,1,The Weeknd Concert
Jack Johnson,50,Beer,10,The Weeknd Concert
Janis Juhno,10,Botted Water,10,The Weeknd Concert
Terry James,5,Beer,1,The Weeknd Concert
Andrew Goodyer,4,Coke,2,The Weeknd Concert
Andrew Goodyer,4,Coke,2,The Book of Mormon Show
Sunny Sood,12,Hot Dog,2,The Book of Mormon Show
Sam Muntz,5,Beer,1,The Book of Mormon Show
Terry James,6,Hot Dog,1,The Book of Mormon Show
Louis Dalbe,7,Burger,1,The Book of Mormon Show
Max Mazzone,5,Beer,1,The Book of Mormon Show
Max Mazzone,2,Coke,1,The Book of Mormon Show
Max Mazzone,7,Burger,1,The Book of Mormon Show
Jack Johnson,50,Beer,10,The Book of Mormon Show
Janis Juhno,10,Botted Water,10,The Book of Mormon Show
Terry James,5,Beer,1,The Book of Mormon Show
Andrew Goodyer,4,Coke,2,The Book of Mormon Show
Andrew Goodyer,4,Coke,2,The Book of Mormon Show
Sunny Sood,12,Hot Dog,2,The Book of Mormon Show
Sam Muntz,5,Beer,1,The Book of Mormon Show
Jim Jones,2,Coke,1,The Book of Mormon Show
Leni Martin,20,Beer,4,The Book of Mormon Show
Leni Martin,20,Beer,4,The Book of Mormon Show
Sunny Sood,4,Botted Water,4,Harry Potter and the Cursed Child
Sam Muntz,10,Beer,2,Harry Potter and the Cursed Child
Terry James,6,Hot Dog,1,Harry Potter and the Cursed Child
Louis Dalbe,7,Burger,1,Harry Potter and the Cursed Child
Max Mazzone,5,Beer,1,Harry Potter and the Cursed Child
Max Mazzone,2,Coke,1,Harry Potter and the Cursed Child
Max Mazzone,7,Burger,1,Harry Potter and the Cursed Child
Jack Johnson,50,Beer,10,Harry Potter and the Cursed Child
Janis Juhno,10,Botted Water,10,Harry Potter and the Cursed Child
Terry James,6,Hot Dog,1,Harry Potter and the Cursed Child
Louis Dalbe,7,Burger,1,Harry Potter and the Cursed Child
Terry James,6,Hot Dog,1,Harry Potter and the Cursed Child
Louis Dalbe,7,Burger,1,Harry Potter and the Cursed Child
